<?xml version="1.0" encoding="utf-8"?>
<!-- Generator: Adobe Illustrator 18.0.0, SVG Export Plug-In . SVG Version: 6.00 Build 0)  -->
<!DOCTYPE svg PUBLIC "-//W3C//DTD SVG 1.1//EN" "http://www.w3.org/Graphics/SVG/1.1/DTD/svg11.dtd">
<svg version="1.1" id="Layer_1" xmlns="http://www.w3.org/2000/svg" xmlns:xlink="http://www.w3.org/1999/xlink" x="0px" y="0px"
	 viewBox="28.3 191.3 538.6 212.6" enable-background="new 28.3 191.3 538.6 212.6" xml:space="preserve">
<g>
	<path fill="#FFFFFF" d="M109.3,201.9h15.6l23.3,58.6l23.5-58.6H187l-28.8,70.5l31.6,74.7l59.8-146.3h17.7l-69.8,165.2h-14.4
		l-34.7-81.7l-35,81.6H99.1L29.6,200.7h17.2l60,146.3l31.4-74.7L109.3,201.9z"/>
	<path fill="#FFFFFF" d="M244.7,304.9c0-33.9,25.6-62.3,60.7-62.3c35.3,0,59.8,28.8,60,62.1c0,2.3-0.3,5.4-0.5,6.3H261.5
		c1.9,26,21.4,45.1,44.6,45.1c16.1,0,31.6-8.8,37.2-21.9l13.8,3.7c-7.4,17.7-28.2,30.2-51.4,30.2
		C270.3,368.2,244.7,339.3,244.7,304.9z M350.4,298.9c-2.1-25.9-21.2-44-44.9-44s-42.8,18.4-44.5,44H350.4z"/>
	<path fill="#FFFFFF" d="M389.9,196h15.8v142.4c0,9.1,5.4,14.4,14.2,14.4c3.5,0,8.7-0.9,12.6-2.6l2.8,12.8
		c-5.9,2.3-15.6,4.2-21.9,4.2c-14.4,0-23.5-8.8-23.5-23.5V196z"/>
	<path fill="#FFFFFF" d="M442.5,305.6c0-34.2,23.3-63.1,55.3-63.1c20.5,0,36.7,12.4,46,27.4V196h15.8v149.4c0,4.5,1.7,6.5,5.6,6.5
		v14c-2.6,0.5-4.7,0.7-6.3,0.7c-7.7,0-13.3-5.1-13.3-11.4v-12.8c-9.8,15.8-27.4,25.9-45.1,25.9C466.9,368.2,442.5,338.2,442.5,305.6
		z M543.9,324.2v-37.5c-6.3-16.7-25.4-30.2-41.9-30.2c-26,0-43.3,24.2-43.3,49.1c0,26.3,19.8,48.6,45.1,48.6
		C519.9,354.2,541.3,340.7,543.9,324.2z"/>
</g>
<g>
	<path fill="#FFFFFF" d="M146.2,400.9v-25.4h16.6v2.2h-14.1v9.3h12v2h-12v11.7L146.2,400.9L146.2,400.9z"/>
	<path fill="#FFFFFF" d="M175.8,384.4c-3.3,0.1-5.9,1.9-6.9,4.9v11.5h-2.4v-18.6h2.3v4.5c1.3-2.6,3.5-4.6,6-4.6c0.5,0,0.8,0,1.1,0
		L175.8,384.4L175.8,384.4z"/>
	<path fill="#FFFFFF" d="M177.2,395.6c0-3.4,3.3-5.7,7.9-5.7c1.9,0,3.9,0.4,5.5,0.9v-1.7c0-3.3-2-5.4-5.2-5.4c-2,0-4,0.7-6,2.2
		l-0.8-1.6c2.4-1.6,4.7-2.4,7.1-2.4c4.5,0,7.4,2.8,7.4,7.4v8.4c0,0.7,0.3,1,0.8,1v2.1c-0.4,0-0.7,0.1-0.9,0.1c-0.9,0-1.9-0.6-2-1.7
		l-0.1-1.5c-1.6,2.1-4.6,3.4-7.3,3.4C179.8,401.3,177.2,398.7,177.2,395.6z M189.9,396.8c0.3-0.5,0.7-0.9,0.7-1.4v-3.1
		c-1.6-0.7-3.4-0.9-5.1-0.9c-3.4,0-5.9,1.5-5.9,4c0,2,1.6,4,4.7,4C186.3,399.4,188.7,398.4,189.9,396.8z"/>
	<path fill="#FFFFFF" d="M225.9,400.9h-2.4v-10.4c0-4.3-1.4-6.3-4.1-6.3c-2.8,0-5.2,2.2-6.1,5.4v11.3h-2.4v-10.4
		c0-4.4-1.3-6.3-4.1-6.3s-5.2,2.1-6.1,5.3v11.4h-2.4v-18.6h2.2v4.2c1.6-2.9,4.1-4.6,7.1-4.6c3.1,0,5.1,2,5.5,4.7
		c1.7-3.2,4.2-4.7,7.3-4.7c4.2,0,5.7,3.2,5.7,8L225.9,400.9L225.9,400.9z"/>
	<path fill="#FFFFFF" d="M229.7,391.5c0-5.2,3.9-9.6,9.3-9.6c5.4,0,9.2,4.5,9.2,9.6c0,0.4,0,0.8-0.1,0.9h-15.9c0.3,4,3.3,7,6.9,7
		c2.5,0,4.8-1.4,5.7-3.3l2.1,0.6c-1.1,2.7-4.3,4.7-7.9,4.7C233.6,401.3,229.7,396.8,229.7,391.5z M246,390.6c-0.3-4-3.3-6.8-6.9-6.8
		c-3.6,0-6.6,2.8-6.8,6.8H246z"/>
	<path fill="#FFFFFF" d="M274.9,382.3h2.3l-8,18.6h-2l-4-9.5l-4,9.5h-2l-8-18.6h2.3l6.8,16.1l3.5-8.5l-3.2-7.5h2l2.4,6l2.4-6h2
		l-3.2,7.5l3.5,8.5L274.9,382.3z"/>
	<path fill="#FFFFFF" d="M278.6,391.6c0-5.2,3.9-9.7,9.2-9.7s9.2,4.5,9.2,9.7s-3.9,9.6-9.2,9.6C282.4,401.3,278.6,396.8,278.6,391.6
		z M287.8,399.1c3.7,0,6.8-3.3,6.8-7.5c0-4.2-3.1-7.5-6.8-7.5c-3.7,0-6.8,3.3-6.8,7.5C281.1,395.8,284.1,399.1,287.8,399.1z"/>
	<path fill="#FFFFFF" d="M310.4,384.4c-3.3,0.1-5.9,1.9-6.9,4.9v11.5h-2.4v-18.6h2.3v4.5c1.3-2.6,3.5-4.6,6-4.6c0.5,0,0.8,0,1.1,0
		L310.4,384.4L310.4,384.4z"/>
	<path fill="#FFFFFF" d="M326.8,400.9l-6.9-9.6l-4,3.7v5.9h-2.4v-26h2.4v17.8l10.5-10.2h2.8l-7.6,7.6l7.9,11L326.8,400.9
		L326.8,400.9z"/>
	<path fill="#FFFFFF" d="M359.4,400.9l-3-3.1c-2,2.1-4.7,3.4-7.7,3.4c-4.5,0-8.1-2.8-8.1-6.9c0-3.4,2.5-5.6,5.4-7.5
		c-2.6-2.8-3.4-4.3-3.4-6c0-3.2,2.8-5.6,6.3-5.6c3.3,0,6,2,6,5c0,3-2.5,4.8-5.6,6.8l7.1,7.4c0.9-1.9,1.6-4,1.6-6.3h2
		c0,2.9-0.8,5.6-2.1,7.8l4.7,4.9H359.4L359.4,400.9z M355.1,396.4l-7.7-8.1c-2.5,1.8-4.4,3.5-4.4,6.1c0,3.2,3.1,4.8,6,4.8
		C351.4,399.3,353.5,398.2,355.1,396.4z M347.9,385.6c2.8-1.9,4.7-3.3,4.7-5.3c0-1.9-1.6-3.2-3.7-3.2c-2.3,0-4.1,1.7-4.1,3.6
		C344.8,381.8,345.4,382.9,347.9,385.6z"/>
	<path fill="#FFFFFF" d="M385.7,375.4c4.5,0,7.8,2.3,9.4,5.6l-2,1.2c-1.6-3.3-4.7-4.5-7.5-4.5c-6,0-9.4,5.4-9.4,10.5
		c0,5.6,4.1,10.7,9.5,10.7c2.9,0,6.2-1.4,7.8-4.7l2,1.1c-1.7,3.8-6.1,5.9-10,5.9c-7,0-11.9-6.6-11.9-13.1
		C373.7,381.9,378.1,375.4,385.7,375.4z"/>
	<path fill="#FFFFFF" d="M422.5,400.9v-20.8l-9.2,16.1h-1.5l-9.3-16.1v20.8H400v-25.4h2.5l10,17.4l10-17.4h2.5v25.4H422.5z"/>
	<path fill="#FFFFFF" d="M446.3,380.3c-1.4-1.6-3.9-2.7-7-2.7c-4.5,0-6.5,1.9-6.5,4.7c0,3,2.1,3.8,7.1,4.8c5.4,1.1,8.7,2.6,8.7,7.1
		c0,4.7-3.8,6.9-9.1,6.9c-4,0-7.4-1.2-10.1-3.7l1.2-2c1.9,2,5.1,3.5,9,3.5c4,0,6.5-1.5,6.5-4.4c0-3.1-2.6-4.1-7.7-5.2
		c-5.3-1.2-8.1-2.5-8.1-6.6c0-4.7,3.7-7.3,9-7.3c3.3,0,6,1.1,8.1,2.9L446.3,380.3z"/>
</g>
</svg>
